{
    "_id": "zpaWTsviTO16biJi",
    "data": {
        "activation": {
            "condition": "",
            "cost": 0,
            "type": ""
        },
        "autoDestroy": {
            "_deprecated": true,
            "value": true
        },
        "autoUse": {
            "_deprecated": true,
            "value": true
        },
        "baseItem": null,
        "brokenThreshold": {
            "value": 0
        },
        "bulkCapacity": {
            "value": ""
        },
        "charges": {
            "_deprecated": true,
            "max": 0,
            "value": 0
        },
        "collapsed": {
            "value": false
        },
        "consumableType": {
            "value": "snare"
        },
        "consume": {
            "_deprecated": true,
            "value": ""
        },
        "containerId": {
            "value": null
        },
        "description": {
            "value": "<p>Complex traps that incorporate ooze monsters into their ingenious construction have long been a favorite of those who seek devious ways to protect their hidden laboratories, and it is from this tradition that the clinging ooze snare takes its inspiration. With its ingenious mixture of rare reagents, dried protoplasm harvested from ooze creatures, and a little pinch of alchemy, this snare triggers into an ooze-like hazard that temporarily mimics the dangers presented by a creature like a sewer ooze or other carnivorous protoplasmic monster.</p>\n<p>When a creature triggers a clinging ooze snare, the snare creates a short lived protoplasmic mass that lashes out in all directions, dealing [[/r {2d6}[bludgeoning]+{2d6}[acid]]]{2d6 bludgeoning damage and 2d6 acid damage}. The triggering creature must attempt a <span data-pf2-check=\"reflex\" data-pf2-traits=\"damaging-effect,acid,consumable,mechanical,snare,trap\" data-pf2-label=\"Clinging Ooze Snare DC\" data-pf2-dc=\"21\" data-pf2-show-dc=\"gm\">Reflex</span> save.</p>\n<hr />\n<p><strong>Critical Success</strong> The creature is unaffected</p>\n<p><strong>Success</strong> The creature takes half damage</p>\n<p><strong>Failure</strong> The target takes full damage and is @Compendium[pf2e.conditionitems.Flat-Footed]{Flat-Footed} until the start of their next turn as the ooze impedes their movement.</p>\n<p><strong>Critical Failure</strong> The target takes double damage and is both flat-footed and @Compendium[pf2e.conditionitems.Immobilized]{Immobilized} for 1 round. The target can @Compendium[pf2e.actionspf2e.Escape]{Escape} (DC 21) to end this effect early.</p>"
        },
        "duration": {
            "units": "",
            "value": null
        },
        "equipped": {
            "value": false
        },
        "equippedBulk": {
            "value": ""
        },
        "hardness": {
            "value": 0
        },
        "hp": {
            "value": 0
        },
        "identification": {
            "misidentified": {},
            "status": "identified",
            "unidentified": {
                "data": {
                    "description": {
                        "value": ""
                    }
                },
                "img": "",
                "name": ""
            }
        },
        "level": {
            "value": 4
        },
        "maxHp": {
            "value": 0
        },
        "negateBulk": {
            "value": "0"
        },
        "preciousMaterial": {
            "value": null
        },
        "preciousMaterialGrade": {
            "value": null
        },
        "price": {
            "value": "25 gp"
        },
        "quantity": {
            "value": 1
        },
        "range": {
            "long": null,
            "units": "",
            "value": null
        },
        "rules": [],
        "size": {
            "value": "med"
        },
        "source": {
            "value": "Pathfinder Special: Fumbus!"
        },
        "spell": {
            "data": null,
            "heightenedLevel": null
        },
        "stackGroup": {
            "value": ""
        },
        "target": {
            "type": "",
            "units": "",
            "value": null
        },
        "traits": {
            "custom": "",
            "rarity": {
                "value": "rare"
            },
            "value": [
                "acid",
                "consumable",
                "mechanical",
                "snare",
                "trap"
            ]
        },
        "usage": {
            "value": "held-in-one-hand"
        },
        "uses": {
            "autoDestroy": true,
            "autoUse": true,
            "max": 0,
            "per": null,
            "value": 0
        },
        "weight": {
            "value": "-"
        }
    },
    "effects": [],
    "flags": {},
    "img": "systems/pf2e/icons/default-icons/consumable.svg",
    "name": "Clinging Ooze Snare",
    "type": "consumable"
}
