{
    "_id": "BcSlVpaN72LoQ5BV",
    "data": {
        "actionCategory": {
            "value": "interaction"
        },
        "actionType": {
            "value": "passive"
        },
        "actions": {
            "value": null
        },
        "description": {
            "value": "<p>A typical ghost can stray only a short distance from where it was killed or the place it haunts. A typical limit is 120 feet. Some ghosts are instead bound to a room, building, item, or creature that was special to it rather than a location.</p>"
        },
        "requirements": {
            "value": "Pathfinder Bestiary"
        },
        "rules": [],
        "source": {
            "value": ""
        },
        "traits": {
            "custom": "",
            "rarity": {
                "value": "common"
            },
            "value": []
        },
        "trigger": {
            "value": ""
        },
        "weapon": {
            "value": ""
        }
    },
    "effects": [],
    "flags": {},
    "img": "systems/pf2e/icons/actions/Passive.webp",
    "name": "(Ghost) Site Bound",
    "type": "action"
}
