{
    "_id": "4UEZY3G3CiCP78Kx",
    "data": {
        "actionCategory": {
            "value": "offensive"
        },
        "actionType": {
            "value": "action"
        },
        "actions": {
            "value": 1
        },
        "description": {
            "value": "<p>The visitant makes a claw Strike against a creature it has @Compendium[pf2e.conditionitems.Grabbed]{Grabbed}. If the attack hits, that creature is knocked @Compendium[pf2e.conditionitems.Prone]{Prone}.</p>"
        },
        "requirements": {
            "value": ""
        },
        "rules": [],
        "source": {
            "value": "Pathfinder #152: Legacy of the Lost God"
        },
        "traits": {
            "custom": "",
            "rarity": {
                "value": "common"
            },
            "value": []
        },
        "trigger": {
            "value": ""
        }
    },
    "effects": [],
    "flags": {},
    "img": "systems/pf2e/icons/actions/OneAction.webp",
    "name": "(Visitant) Wrestle",
    "type": "action"
}
