{
    "_id": "GAoUxmcKx1vW3vEB",
    "data": {
        "actionCategory": {
            "value": ""
        },
        "actionType": {
            "value": "action"
        },
        "actions": {
            "value": 2
        },
        "description": {
            "value": "<p><strong>Frequency</strong> once per hour</p>\n<p><strong>Requirements</strong> You were within the area of an inhaled poison within the last minute; @Compendium[pf2e.feats-srd.Iron Lung]{Iron Lung}</p>\n<hr />\n<p>You sharply exhale the poison that previously surrounded you in a 15-foot cone. Creatures in the area are affected by the poison; the poison's DC and effects are unchanged.</p>"
        },
        "requirements": {
            "value": ""
        },
        "rules": [],
        "source": {
            "value": "Pathfinder #153: Life's Long Shadow"
        },
        "traits": {
            "custom": "",
            "rarity": {
                "value": "common"
            },
            "selected": {},
            "value": []
        },
        "trigger": {
            "value": ""
        },
        "weapon": {
            "value": ""
        }
    },
    "effects": [],
    "flags": {},
    "img": "systems/pf2e/icons/actions/TwoActions.webp",
    "name": "Exhale Poison",
    "type": "action"
}
