{
    "_id": "2HJ4yuEFY1Cast4h",
    "data": {
        "actionCategory": {
            "value": ""
        },
        "actionType": {
            "value": "action"
        },
        "actions": {
            "value": 2
        },
        "description": {
            "value": "<p>You Stride, then make a vertical Leap and attempt a DC 30 <span data-pf2-action=\"highJump\" data-pf2-glyph=\"D\">Athletics</span> check to increase the height of your jump. If you didn't Stride at least 10 feet, you automatically fail your check. This DC might be increased or decreased due to the situation, as determined by the GM.</p>\n<hr />\n<p><strong>Critical Success</strong> Increase the maximum vertical distance to 8 feet, or increase the maximum vertical distance to 5 feet and maximum horizontal distance to 10 feet.</p>\n<p><strong>Success</strong> Increase the maximum vertical distance to 5 feet.</p>\n<p><strong>Failure</strong> You Leap normally.</p>\n<p><strong>Critical Failure</strong> You don't Leap at all, and instead you fall @Compendium[pf2e.conditionitems.Prone]{Prone} in your space.</p>"
        },
        "requirements": {
            "value": ""
        },
        "rules": [],
        "source": {
            "value": "Pathfinder Core Rulebook"
        },
        "traits": {
            "custom": "",
            "rarity": {
                "value": "common"
            },
            "value": [
                "move",
                "skill"
            ]
        },
        "trigger": {
            "value": ""
        },
        "weapon": {
            "value": ""
        }
    },
    "effects": [],
    "flags": {},
    "img": "systems/pf2e/icons/actions/TwoActions.webp",
    "name": "High Jump",
    "type": "action"
}
