{
    "_id": "0rkg7SVzs2AetUXw",
    "data": {
        "description": {
            "value": "<p>You gain lifesense as an imprecise sense with a range of 30 feet as long as you are holding the charm, and do not need to activate it. This allows you to sense the life force that animates living creatures and the perverse force that animates the dead, though you can't distinguish between the two.</p>"
        },
        "duration": {
            "expiry": "turn-end",
            "sustained": false,
            "unit": "unlimited",
            "value": -1
        },
        "level": {
            "value": 18
        },
        "rules": [
            {
                "acuity": "imprecise",
                "key": "Sense",
                "range": 30,
                "selector": "lifesense"
            }
        ],
        "source": {
            "value": ""
        },
        "start": {
            "initiative": null,
            "value": 0
        },
        "target": null,
        "tokenIcon": {
            "show": false
        },
        "traits": {
            "custom": "",
            "rarity": {
                "value": "common"
            },
            "value": []
        }
    },
    "effects": [],
    "flags": {},
    "img": "systems/pf2e/icons/default-icons/effect.svg",
    "name": "Effect: Nosoi Charm (Greater) (Lifesense)",
    "type": "effect"
}
