{
    "_id": "GYfIWbgOu5LAsUOg",
    "data": {
        "attributes": {
            "ac": {
                "value": 0
            },
            "hardness": 0,
            "hasHealth": true,
            "hp": {
                "details": "",
                "max": 0,
                "temp": 0,
                "value": 0
            },
            "stealth": {
                "details": "<p>(trained)</p>",
                "value": 10
            }
        },
        "creatureType": "",
        "details": {
            "description": "<p>The image of a ghostly warrior her holy symbol dripping blood and pulsing with negative energy, steps from the wall and seeks to kill any living creature.</p>",
            "disable": "<p><span data-pf2-check=\"religion\" data-pf2-traits=\"complex,haunt\" data-pf2-label=\"Exorcise Spirit DC\" data-pf2-dc=\"20\" data-pf2-show-dc=\"gm\">Religion</span> (trained) to exorcise the spirit, <span data-pf2-check=\"religion\" data-pf2-traits=\"complex,haunt\" data-pf2-label=\"Sever Spiritual Connection DC\" data-pf2-dc=\"21\" data-pf2-show-dc=\"gm\">Religion</span> or <span data-pf2-check=\"occultism\" data-pf2-traits=\"complex,haunt\" data-pf2-label=\"Sever Spiritual Connection DC\" data-pf2-dc=\"21\" data-pf2-show-dc=\"gm\">Occultism</span> (trained) to sever the connection between <em>Hunger's Call</em> and the temple, or <span data-pf2-check=\"thievery\" data-pf2-traits=\"complex,haunt\" data-pf2-label=\"Scratch Eyes out of the Mural DC\" data-pf2-dc=\"21\" data-pf2-show-dc=\"gm\">Thievery</span> (trained) to scratch the eyes out of the mural; three total successes are required to disable the haunt.</p>",
            "isComplex": true,
            "level": {
                "value": 3
            },
            "reset": "<p>The spectral warrior returns to the wall and ceases 2 rounds after all living creatures are out of sight of the stairs. After 6 hours the haunt is ready to trigger again.</p>",
            "routine": "<p><span class=\"pf2-icon\">3</span> The warrior's blade sweeps through the bodies of any living creature within sight of the exit stairs, and they each take [[/r {1d10+4}[slashing]]]{1d10+4 slashing damage} (<span data-pf2-check=\"fortitude\" data-pf2-traits=\"complex,haunt,damaging-effect,slashing\" data-pf2-label=\"Avoid the Warrior's Blade DC\" data-pf2-dc=\"20\" data-pf2-show-dc=\"gm\">basic Fortitude</span> save). Undead creatures in the area gain 5 temporary hit points.</p>"
        },
        "saves": {
            "fortitude": {
                "saveDetail": "",
                "value": 0
            },
            "reflex": {
                "saveDetail": "",
                "value": 0
            },
            "will": {
                "saveDetail": "",
                "value": 0
            }
        },
        "source": {
            "value": ""
        },
        "statusEffects": [],
        "traits": {
            "ci": [],
            "di": {
                "custom": "",
                "selected": {},
                "value": []
            },
            "dr": [],
            "dv": [],
            "rarity": {
                "value": "common"
            },
            "size": {
                "value": "med"
            },
            "traits": {
                "custom": "",
                "value": [
                    "haunt"
                ]
            }
        }
    },
    "effects": [],
    "flags": {},
    "img": "systems/pf2e/icons/default-icons/hazard.svg",
    "items": [
        {
            "_id": "OsRJ9mpFyuDME5oa",
            "data": {
                "actionCategory": {
                    "value": "offensive"
                },
                "actionType": {
                    "value": "reaction"
                },
                "actions": {
                    "value": null
                },
                "description": {
                    "value": "<p data-visibility=\"gm\"><strong>Trigger</strong> A living creature bearing <em>Hunger's Call</em> moves within 30 feet of the exit stairs;</p>\n<p><strong>Effect</strong> Blood pounds in the targe's body as their heart races uncontrollably. The creature must attempt a <span data-pf2-check=\"will\" data-pf2-traits=\"arcane,death,fear,complex\" data-pf2-label=\"Resist Racing Blood DC\" data-pf2-dc=\"20\" data-pf2-show-dc=\"gm\">Will</span> save, and the haunt then rolls initiative.</p>\n<div data-visibility=\"gm\"><hr />\n<p><strong>Critical Success</strong> The target is unaffected.</p>\n<p><strong>Success</strong> The target is @Compendium[pf2e.conditionitems.Sickened]{Sickened 1}.</p>\n<p><strong>Failure</strong> The target is @Compendium[pf2e.conditionitems.Sickened]{Sickened 2}.</p>\n<p><strong>Critical Failure</strong> As failure, and the target's move speed is reduced by 10 for 1 minute.</p>\n</div>"
                },
                "requirements": {
                    "value": ""
                },
                "rules": [],
                "slug": null,
                "source": {
                    "value": ""
                },
                "traits": {
                    "custom": "",
                    "rarity": {
                        "value": "common"
                    },
                    "value": [
                        "arcane",
                        "death",
                        "fear"
                    ]
                },
                "trigger": {
                    "value": ""
                }
            },
            "effects": [],
            "flags": {},
            "img": "systems/pf2e/icons/actions/Reaction.webp",
            "name": "Racing Blood",
            "sort": 0,
            "type": "action"
        }
    ],
    "name": "Spite of the Righteous",
    "token": {
        "disposition": 0,
        "height": 1,
        "img": "systems/pf2e/icons/default-icons/hazard.svg",
        "name": "Spite of the Righteous",
        "width": 1
    },
    "type": "hazard"
}
