{
    "_id": "remyY1BwhEVmBwya",
    "content": "<h1>Belial (The Pale Kiss) [LE]</h1><p>The lord of Hell's fourth layer, Phlegethon, is Belial. The Pale Kiss was created by Asmodeus as an object of adoration, with perfect form and beauty in the eyes of every creature. As a result, Belial has a virtually unlimited malleability of form, shifting between shapes almost constantly. His appearance is often as dualistic as his personality: half his body beautiful and half grotesque, much as he revels equally in pleasure and pain. As he is a creature of carnal desires, so are his followers: those who crave forbidden pleasures of the flesh but hide behind masks of respectability.</p><p><strong>Edicts</strong> Indulge your basest desires, create deadly weapons</p><p><strong>Anathema</strong> Impede an act of high hedonism, become too attached to a lover or project</p><p><strong>Follower Alignments</strong> LE</span></p><p></span></p><h2>Devotee Benefits</h2><div><div><strong>Divine Ability</strong> Intelligence or Charisma</div><div><strong>Divine Font</strong> harm</div><div><strong>Divine Skill</strong> Diplomacy</div><div><strong>Favored Weapon</strong> ranseur</div><div><strong>Domains</strong> change, passion, trickery, zeal</div><div><strong>Cleric Spells</strong> 1st: charm, 2nd: humanoid form, 3rd: enthrall</div></div>",
    "flags": {},
    "name": "Belial",
    "permission": {
        "default": 0
    }
}
