{
    "_id": "pm8H2DbtrHM01KNV",
    "content": "<h1>Naderi (The Lost Maiden) [N]</h1><p><strong>Edicts</strong> Comfort and encourage lovers, help the suffering escape their circumstances in life or in death</p><p><strong>Anathema</strong> Dismiss or mock a creature's grief, separate lovers, torture a creature</p><p><strong>Follower Alignments</strong> NG, N, NE</span></p><p></span></p><h2>Devotee Benefits</h2><div><div><strong>Divine Ability</strong> Constitution or Charisma</div><div><strong>Divine Font</strong> harm</div><div><strong>Divine Skill</strong> Diplomacy</div><div><strong>Favored Weapon</strong> dagger</div><div><strong>Domains</strong> death, passion, sorrow, water</div><div><strong>Cleric Spells</strong> 1st: soothe, 4th: crushing despair, 5th: drop dead</div></div>",
    "flags": {},
    "name": "Naderi",
    "permission": {
        "default": 0
    }
}
