{
    "_id": "ENzMYuzBZGIujSMx",
    "content": "<h1>Treerazer (Lord of the Blasted Tarn) [CE]</h1><p>Treerazer, the Lord of the Blasted Tarn, is a nascent demon lord of pollution and the corruption of nature, believed by many to be an exiled servant or spawn of Cyth-V'sug who was banished to Golarion after a failed attempt at supplanting the demon lord. Though Treerazer is a nascent demon lord, and thus lacks the power of a true demon lord, he is perhaps most noteworthy among those who have a stake in Golarion due to his physical presence within the Tanglebriar, a corrupted, fetid swamp that was once the southern edges of the elven nation of Kyonin. He is served by devoted cultists in and around Kyonin, though small pockets of believers can be found around Golarion working furtively to free him in hopes of gaining his favor upon his ascension. Treerazer's religious symbol is a bleeding dead tree that's been split in half.</p><p></p><p><strong>Edicts</strong> corrupt plant life with evil or fungal influences, slay elves, feast on rotten flesh or fungus</p><p><strong>Anathema</strong> grant mercy to elves, plant trees, encourage natural plant growth</p><p><strong>Areas of Concern</strong> pollution and the corruption of nature</p><p><strong>Follower Alignments</strong> NE, CE</span></p><h2>Devotee Benefits</h2><p><strong>Divine Font</strong> <em>harm</em> or <em>heal</em></p><p><strong>Divine Skill</strong> Nature<u></u></p><p><strong>Favored Weapon</strong> battle axe<u></u></p><p><strong>Domains</strong> destruction, nature, nigthmares, tyranny</p><p><strong>Cleric Spells</strong> 1st: <em>grim trendrils</em>, 3rd: <em>wall of thorns</em>, 6th: <em>tangling creepers</em></p>",
    "flags": {},
    "name": "Treerazer",
    "permission": {
        "default": 0
    }
}
