{
    "_id": "J7K7kHoIE69558Su",
    "content": "<p><strong>Deities&nbsp;</strong>@Compendium[pf2e.deities.Arazni]{Arazni}, @Compendium[pf2e.deities.Arshea]{Arshea}, @Compendium[pf2e.deities.Black Butterfly]{Black Butterfly}, @Compendium[pf2e.deities.Casandalee]{Casandalee}, @Compendium[pf2e.deities.Cayden Cailean]{Cayden Cailean}, @Compendium[pf2e.deities.Cosmic Caravan]{Cosmic Caravan}, @Compendium[pf2e.deities.Falayna]{Falayna}, @Compendium[pf2e.deities.Kazutal]{Kazutal}, @Compendium[pf2e.deities.Milani]{Milani}, @Compendium[pf2e.deities.Narriseminek]{Narriseminek}, @Compendium[pf2e.deities.Ranginori]{Ranginori}, @Compendium[pf2e.deities.Saloc]{Saloc}, @Compendium[pf2e.deities.Shei]{Shei}, @Compendium[pf2e.deities.Walkena]{Walkena}</p><p><strong>Domain Spell</strong> @Compendium[pf2e.spells-srd.Unimpeded Stride]{Unimpeded Stride}; <strong>Advanced Domain Spell</strong> @Compendium[pf2e.spells-srd.Word of Freedom]{Word of Freedom}</p><p></span><span id=\"ctl00_MainContent_DetailedOutput\">You liberate yourself and others from shackles and constraints.</p>",
    "flags": {},
    "name": "Freedom Domain",
    "permission": {
        "default": 0
    }
}
