{
    "_id": "loC0wIyIrsG43Zrd",
    "data": {
        "actionCategory": {
            "value": ""
        },
        "actionType": {
            "value": "passive"
        },
        "actions": {
            "value": null
        },
        "description": {
            "value": "<p>You have used alchemy to create life, a simple creature formed from alchemical materials, reagents, and a bit of your own blood. This alchemical familiar appears to be a small creature of flesh and blood, though it might have some unusual or distinguishing aspects depending on your creative process. Like other familiars, your alchemical familiar assists you in your laboratory and on adventures. The familiar uses your Intelligence modifier to determine its Perception, Acrobatics, and Stealth modifiers.</p>"
        },
        "featType": {
            "value": "class"
        },
        "level": {
            "value": 1
        },
        "location": "",
        "prerequisites": {
            "value": []
        },
        "rules": [
            {
                "key": "ActiveEffectLike",
                "mode": "upgrade",
                "path": "data.attributes.familiarAbilities.value",
                "priority": 9,
                "value": 2
            }
        ],
        "source": {
            "value": "Pathfinder Core Rulebook"
        },
        "traits": {
            "custom": "",
            "rarity": {
                "value": "common"
            },
            "value": [
                "alchemist"
            ]
        }
    },
    "effects": [],
    "flags": {},
    "img": "systems/pf2e/icons/features/feats/feats.webp",
    "name": "Alchemical Familiar",
    "type": "feat"
}
