{
    "_id": "j0mlvJcuYGFuMG2S",
    "data": {
        "actionCategory": {
            "value": ""
        },
        "actionType": {
            "value": "reaction"
        },
        "actions": {
            "value": null
        },
        "description": {
            "value": "<p><strong>Frequency</strong> once per day</p>\n<p><strong>Trigger</strong> You attempt a saving throw while adjacent to one or more allies, but you haven't rolled yet.</p>\n<hr />\n<p>In stressful circumstances, you find strength in your allies' example. Roll the save using an adjacent ally's modifier for that type of saving throw instead of your own.</p>"
        },
        "featType": {
            "value": "ancestry"
        },
        "level": {
            "value": 5
        },
        "prerequisites": {
            "value": []
        },
        "rules": [],
        "source": {
            "value": "Pathfinder Advanced Player's Guide"
        },
        "traits": {
            "custom": "",
            "rarity": {
                "value": "common"
            },
            "value": [
                "fortune",
                "kobold"
            ]
        }
    },
    "effects": [],
    "flags": {},
    "img": "systems/pf2e/icons/features/feats/feats.webp",
    "name": "Ally's Shelter",
    "type": "feat"
}
