{
    "_id": "0Iv3VbR1DMPbZIjD",
    "data": {
        "actionCategory": {
            "value": ""
        },
        "actionType": {
            "value": "action"
        },
        "actions": {
            "value": 2
        },
        "description": {
            "value": "<p>While swimming in water at least 10 feet deep, you grab an adjacent creature (on nearby land or in the water) and pull it below the surface.</p>\n<p>Attempt an Athletics check to @Compendium[pf2e.actionspf2e.Grapple]{Grapple} the creature. On a success, if the creature is on land, in addition to the normal effects of Grapple, you pull the creature into the water in a space adjacent to you. If the creature is already in the water, on a success, in addition the normal effects of Grapple, you drag the creature 10 feet deeper into the water, moving 10 feet with the creature.</p>\n<p>Moving a creature into water or deeper into water using Drag Down is forced movement for the creature but not for you.</p>"
        },
        "featType": {
            "value": "ancestry"
        },
        "level": {
            "value": 5
        },
        "location": "",
        "prerequisites": {
            "value": []
        },
        "rules": [],
        "source": {
            "value": "Azarketi Ancestry Web Supplement"
        },
        "traits": {
            "custom": "",
            "rarity": {
                "value": "common"
            },
            "value": [
                "azarketi"
            ]
        }
    },
    "effects": [],
    "flags": {},
    "img": "systems/pf2e/icons/default-icons/feats.webp",
    "name": "Drag Down",
    "type": "feat"
}
