{
    "_id": "6WwxTbX8KvU3Xxak",
    "data": {
        "actionCategory": {
            "value": ""
        },
        "actionType": {
            "value": "passive"
        },
        "actions": {
            "value": null
        },
        "description": {
            "value": "<p>You can use magic to show others desert hospitality. You can cast 2nd-level <em>@Compendium[pf2e.spells-srd.Create Food]{Create Food}</em> once per day and <em>@Compendium[pf2e.spells-srd.Create Water]{Create Water}</em> twice per day as arcane innate spells.</p>"
        },
        "featType": {
            "value": "ancestry"
        },
        "level": {
            "value": 9
        },
        "location": "",
        "prerequisites": {
            "value": []
        },
        "rules": [],
        "source": {
            "value": "Pathfinder Lost Omens: Ancestry Guide"
        },
        "traits": {
            "custom": "",
            "rarity": {
                "value": "common"
            },
            "value": [
                "suli"
            ]
        }
    },
    "effects": [],
    "flags": {},
    "img": "systems/pf2e/icons/features/feats/feats.webp",
    "name": "Janni Hospitality",
    "type": "feat"
}
