{
    "_id": "AJRWIcBGCIxXG0RS",
    "data": {
        "actionCategory": {
            "value": ""
        },
        "actionType": {
            "value": "passive"
        },
        "actions": {
            "value": null
        },
        "description": {
            "value": "<p>You gain the expert bounded spellcasting benefits.</p>"
        },
        "featType": {
            "value": "archetype"
        },
        "level": {
            "value": 18
        },
        "location": "",
        "prerequisites": {
            "value": [
                {
                    "value": "Expert Magus Spellcasting"
                },
                {
                    "value": "legendary in Arcana"
                }
            ]
        },
        "rules": [
            {
                "key": "ActiveEffectLike",
                "mode": "upgrade",
                "path": "data.proficiencies.traditions.arcane.rank",
                "value": 3
            }
        ],
        "source": {
            "value": ""
        },
        "traits": {
            "custom": "",
            "rarity": {
                "value": "common"
            },
            "value": [
                "archetype"
            ]
        }
    },
    "effects": [],
    "flags": {},
    "img": "systems/pf2e/icons/default-icons/feat.svg",
    "name": "Master Magus Spellcasting",
    "type": "feat"
}
