{
    "_id": "VDiMapgJoFI3CCol",
    "data": {
        "actionCategory": {
            "value": ""
        },
        "actionType": {
            "value": "passive"
        },
        "actions": {
            "value": null
        },
        "description": {
            "value": "<p>To you, the squeaking of rats and other rodents makes a strange kind of sense.</p>\n<p>You can ask questions of, receive answers from, and use the Diplomacy skill with rodents, including beavers, mice, porcupines, rats, and squirrels, but not with other mammals, such as dogs or bats. The GM determines which animals count as rodents.</p>"
        },
        "featType": {
            "value": "ancestry"
        },
        "level": {
            "value": 1
        },
        "prerequisites": {
            "value": []
        },
        "rules": [],
        "source": {
            "value": "Pathfinder Advanced Player's Guide"
        },
        "traits": {
            "custom": "",
            "rarity": {
                "value": "common"
            },
            "value": [
                "ratfolk"
            ]
        }
    },
    "effects": [],
    "flags": {},
    "img": "systems/pf2e/icons/features/feats/feats.webp",
    "name": "Ratspeak",
    "type": "feat"
}
