{
    "_id": "mB7ENhF10qoOwQyG",
    "data": {
        "actionCategory": {
            "value": "interaction"
        },
        "actionType": {
            "value": "free"
        },
        "actions": {
            "value": null
        },
        "description": {
            "value": "<p><strong>Trigger</strong> You use Arcane Cascade.</p>\n<hr />\n<p>When you enter your Arcane Cascade, you disperse the magical reinforcement to nearby allies. You grant the extra damage of Arcane Cascade in an aura affecting all allies in a 5-foot emanation. This uses only the base damage of the stance, based on the ally's weapon specialization; it doesn't use any increase you get from bonuses, the laughing shadow hybrid study, or the like.</p>\n<p>As normal for duplicate effects, multiple Arcane Cascades affecting the same creature aren't cumulative.</p>"
        },
        "featType": {
            "value": "class"
        },
        "level": {
            "value": 16
        },
        "location": "",
        "prerequisites": {
            "value": [
                {
                    "value": "Arcane Cascade"
                }
            ]
        },
        "rules": [],
        "source": {
            "value": ""
        },
        "traits": {
            "custom": "",
            "rarity": {
                "value": "common"
            },
            "value": [
                "magus"
            ]
        }
    },
    "effects": [],
    "flags": {},
    "img": "systems/pf2e/icons/features/feats/feats.webp",
    "name": "Resounding Cascade",
    "type": "feat"
}
