{
    "_id": "WPHq7MWHlGWpTnme",
    "data": {
        "actionCategory": {
            "value": ""
        },
        "actionType": {
            "value": "passive"
        },
        "actions": {
            "value": null
        },
        "description": {
            "value": "<p>You have such familiarity with obscure texts that you can compel them to reveal their secrets. Once per day, you can touch a single text (such as a tome, a wall of hieroglyphics, or something similar) and understand its meaning for 1 hour. If the text is in multiple languages, you gain the ability to understand them all for only the purposes of reading the text. If the text is in a code or cypher, you don't automatically understand the text, but you gain a +2 circumstance bonus to checks to decipher it.</p>"
        },
        "featType": {
            "value": "archetype"
        },
        "level": {
            "value": 4
        },
        "location": "",
        "prerequisites": {
            "value": [
                {
                    "value": "Eldritch Researcher Dedication"
                }
            ]
        },
        "rules": [],
        "source": {
            "value": "Pathfinder #164: Hands of the Devil"
        },
        "traits": {
            "custom": "",
            "rarity": {
                "value": "common"
            },
            "value": [
                "archetype",
                "divination"
            ]
        }
    },
    "effects": [],
    "flags": {},
    "img": "systems/pf2e/icons/default-icons/feats.webp",
    "name": "Strange Script",
    "type": "feat"
}
