{
    "_id": "oEvcWFvBnsZ03OGW",
    "data": {
        "actionCategory": {
            "value": ""
        },
        "actionType": {
            "value": "passive"
        },
        "actions": {
            "value": null
        },
        "description": {
            "value": "<p>You've learned how to throw your voice through the winds, tricking others as to your location. You can cast <em>@Compendium[pf2e.spells-srd.Ventriloquism]{Ventriloquism}</em> as a primal innate spell once per day. If you're a songbird strix, you can cast it twice per day instead.</p>"
        },
        "featType": {
            "value": "ancestry"
        },
        "level": {
            "value": 5
        },
        "location": "",
        "prerequisites": {
            "value": []
        },
        "rules": [],
        "source": {
            "value": "Pathfinder Lost Omens: Ancestry Guide"
        },
        "traits": {
            "custom": "",
            "rarity": {
                "value": "common"
            },
            "value": [
                "strix"
            ]
        }
    },
    "effects": [],
    "flags": {},
    "img": "systems/pf2e/icons/features/feats/feats.webp",
    "name": "Thrown Voice",
    "type": "feat"
}
