{
    "_id": "Y8LHfkzGyOhPlUou",
    "data": {
        "actionCategory": {
            "value": ""
        },
        "actionType": {
            "value": "action"
        },
        "actions": {
            "value": 1
        },
        "description": {
            "value": "<p><strong>Requirements</strong> You are wielding two melee weapons, one in each hand</p>\n<hr />\n<p>You use your two weapons to parry attacks.</p>\n<p>You gain a +1 circumstance bonus to AC until the start of your next turn, or a +2 circumstance bonus if either weapon has the parry trait. You lose this circumstance bonus if you no longer meet this feat's requirement.</p>\n<p>@Compendium[pf2e.feat-effects.Effect: Twin Parry]{Effect: Twin Parry}</p>\n<p>@Compendium[pf2e.feat-effects.Effect: Twin Parry (Parry Trait)]{Effect: Twin Parry (Parry Trait)}</p>"
        },
        "featType": {
            "value": "class"
        },
        "level": {
            "value": 4
        },
        "location": "",
        "prerequisites": {
            "value": []
        },
        "rules": [],
        "source": {
            "value": "Pathfinder Advanced Player's Guide"
        },
        "traits": {
            "custom": "",
            "rarity": {
                "value": "common"
            },
            "value": [
                "fighter",
                "ranger",
                "swashbuckler"
            ]
        }
    },
    "effects": [],
    "flags": {},
    "img": "systems/pf2e/icons/features/feats/feats.webp",
    "name": "Twin Parry",
    "type": "feat"
}
