{
    "_id": "fu1cTh93zgGweduf",
    "data": {
        "actionCategory": {
            "value": ""
        },
        "actionType": {
            "value": "passive"
        },
        "actions": {
            "value": null
        },
        "description": {
            "value": "<p>Ever alert, you @Compendium[pf2e.actionspf2e.Scout]{Scout} for danger even when you are trying to stay hidden. You can perform the Scout exploration activity at the same time as the @Compendium[pf2e.actionspf2e.Avoid Notice]{Avoid Notice} exploration activity.</p>"
        },
        "featType": {
            "value": "ancestry"
        },
        "level": {
            "value": 9
        },
        "prerequisites": {
            "value": []
        },
        "rules": [],
        "source": {
            "value": "Pathfinder Advanced Player's Guide"
        },
        "traits": {
            "custom": "",
            "rarity": {
                "value": "common"
            },
            "value": [
                "catfolk"
            ]
        }
    },
    "effects": [],
    "flags": {},
    "img": "systems/pf2e/icons/features/feats/feats.webp",
    "name": "Wary Skulker",
    "type": "feat"
}
