{
    "_id": "lwzspz4dktZLgqlY",
    "data": {
        "actionCategory": {
            "value": ""
        },
        "actionType": {
            "value": "passive"
        },
        "actions": {
            "value": null
        },
        "description": {
            "value": "<p>Toxins seep out of your artificial body quickly. Each time you succeed at a Fortitude save against an ongoing poison, you reduce its stage by 2, or by 1 against a virulent poison. Each critical success you achieve against an ongoing poison reduces its stage by 3, or by 2 against a virulent poison.</p>"
        },
        "featType": {
            "value": "ancestry"
        },
        "level": {
            "value": 1
        },
        "location": "",
        "prerequisites": {
            "value": []
        },
        "rules": [],
        "source": {
            "value": ""
        },
        "traits": {
            "custom": "",
            "rarity": {
                "value": "common"
            },
            "value": [
                "poppet"
            ]
        }
    },
    "effects": [],
    "flags": {},
    "img": "systems/pf2e/icons/default-icons/feats.webp",
    "name": "Wash Out",
    "type": "feat"
}
