{
    "_id": "ypfT3iybew6ZSIUl",
    "data": {
        "actionCategory": {
            "value": ""
        },
        "actionType": {
            "value": "passive"
        },
        "actions": {
            "value": null
        },
        "description": {
            "value": "<p>As a swashbuckler at the peak of your skill, you swell with confidence and bravado in every attack. Your proficiency rank for your swashbuckler class DC increases to master.</p>\n<p>When you Strike as part of a finisher or @Compendium[pf2e.actionspf2e.Opportune Riposte]{Opportune Riposte}, you can give the Strike the failure effect from the @Compendium[pf2e.classfeatures.Confident Finisher]{Confident Finisher} action, including the increase from @Compendium[pf2e.feats-srd.Precise Finisher]{Precise Finisher} if you have that feat.</p>\n<p>You can do so only if the Strike uses a weapon or unarmed attack that you could use for Confident Finisher.</p>"
        },
        "featType": {
            "value": "classfeature"
        },
        "level": {
            "value": 19
        },
        "location": "",
        "prerequisites": {
            "value": []
        },
        "rules": [
            {
                "key": "ActiveEffectLike",
                "mode": "upgrade",
                "path": "data.attributes.classDC.rank",
                "value": 3
            }
        ],
        "source": {
            "value": ""
        },
        "traits": {
            "custom": "",
            "rarity": {
                "value": "common"
            },
            "value": [
                "swashbuckler"
            ]
        }
    },
    "effects": [],
    "flags": {},
    "img": "systems/pf2e/icons/features/classes/eternal-confidence.webp",
    "name": "Eternal Confidence",
    "type": "feat"
}
