{
    "_id": "AIOBWGOS4nkfH3kW",
    "data": {
        "actionCategory": {
            "value": ""
        },
        "actionType": {
            "value": "passive"
        },
        "actions": {
            "value": null
        },
        "description": {
            "value": "<p>As a bard, you select one muse at 1st level. This muse leads you to great things, and might be a physical creature, a deity, a philosophy, or a captivating mystery.</p>\n<ul>\n<li>@Compendium[pf2e.classfeatures.Enigma Muse]{Enigma Muse}</li>\n<li>@Compendium[pf2e.classfeatures.Maestro Muse]{Maestro Muse}</li>\n<li>@Compendium[pf2e.classfeatures.Polymath Muse]{Polymath Muse}</li>\n<li>@Compendium[pf2e.classfeatures.Warrior Muse]{Warrior Muse}</li>\n</ul>"
        },
        "featType": {
            "value": "classfeature"
        },
        "level": {
            "value": 1
        },
        "location": "",
        "prerequisites": {
            "value": []
        },
        "rules": [],
        "source": {
            "value": ""
        },
        "traits": {
            "custom": "",
            "rarity": {
                "value": "common"
            },
            "value": [
                "bard"
            ]
        }
    },
    "effects": [],
    "flags": {},
    "img": "systems/pf2e/icons/features/classes/choice-feature.webp",
    "name": "Muses",
    "type": "feat"
}
