{
    "_id": "iKhMNWK6FB7ICach",
    "data": {
        "attributes": {
            "ac": {
                "value": 20
            },
            "hardness": 0,
            "hasHealth": true,
            "hp": {
                "details": "",
                "max": 60,
                "temp": 0,
                "value": 60
            },
            "stealth": {
                "details": "(trained)",
                "value": 10
            }
        },
        "creatureType": "",
        "details": {
            "description": "Many carnivorous plants that were once kept satiated now hunger for any meat they can get, even lashing out onto the path to get it.",
            "disable": "<p><span data-pf2-check=\"survival\" data-pf2-traits=\"uncommon,environmental\" data-pf2-label=\"Distract or Trick the Plants DC\" data-pf2-dc=\"25\" data-pf2-show-dc=\"gm\">Survival</span> (trained) to distract or trick the plants or <span data-pf2-check=\"nature\" data-pf2-traits=\"uncommon,environmental\" data-pf2-label=\"Calm the Plants DC\" data-pf2-dc=\"22\" data-pf2-show-dc=\"gm\">Nature</span> (expert) to calm the plants</p>",
            "isComplex": false,
            "level": {
                "value": 5
            },
            "reset": "",
            "routine": ""
        },
        "saves": {
            "fortitude": {
                "saveDetail": "",
                "value": 17
            },
            "reflex": {
                "saveDetail": "",
                "value": 9
            },
            "will": {
                "saveDetail": "",
                "value": 0
            }
        },
        "source": {
            "value": "Pathfinder #170: Spoken on the Song Wind"
        },
        "statusEffects": [],
        "traits": {
            "ci": [],
            "di": {
                "custom": "",
                "selected": {},
                "value": [
                    "mental"
                ]
            },
            "dr": [],
            "dv": [
                {
                    "label": "Acid",
                    "type": "acid",
                    "value": "10"
                },
                {
                    "label": "Fire",
                    "type": "fire",
                    "value": "10"
                },
                {
                    "label": "Slashing",
                    "type": "slashing",
                    "value": "10"
                }
            ],
            "rarity": {
                "value": "uncommon"
            },
            "size": {
                "value": "med"
            },
            "traits": {
                "custom": "",
                "value": [
                    "environmental"
                ]
            }
        }
    },
    "effects": [],
    "flags": {},
    "img": "systems/pf2e/icons/default-icons/hazard.svg",
    "items": [
        {
            "_id": "ljdhuwursvahjyio",
            "data": {
                "actionCategory": {
                    "value": "offensive"
                },
                "actionType": {
                    "value": "reaction"
                },
                "actions": {
                    "value": null
                },
                "description": {
                    "value": "<p data-visibility=\"gm\"><strong>Trigger</strong> A creature moves within reach of the carnivorous plants' vines;</p>\n<p><strong>Effect</strong> The vines wrap around the triggering creature. The creature must succeed at a <span data-pf2-check=\"reflex\" data-pf2-traits=\"uncommon,enviornmental\" data-pf2-label=\"Trapping Vines DC\" data-pf2-dc=\"22\" data-pf2-show-dc=\"gm\">Reflex</span> save or be @Compendium[pf2e.conditionitems.Grabbed]{Grabbed} until it Escapes (DC 22). Whether or not the creature is grabbed, the plants make a gnawing plants Strike against the creature.</p>"
                },
                "requirements": {
                    "value": ""
                },
                "rules": [],
                "slug": null,
                "source": {
                    "value": ""
                },
                "traits": {
                    "custom": "",
                    "rarity": {
                        "value": "common"
                    },
                    "value": []
                },
                "trigger": {
                    "value": ""
                },
                "weapon": {
                    "value": ""
                }
            },
            "effects": [],
            "flags": {},
            "img": "systems/pf2e/icons/actions/Reaction.webp",
            "name": "Trapping Vines",
            "sort": 0,
            "type": "action"
        },
        {
            "_id": "kj3ugpggs5jys753",
            "data": {
                "attack": {
                    "value": ""
                },
                "attackEffects": {
                    "custom": "",
                    "value": []
                },
                "bonus": {
                    "value": 17
                },
                "damageRolls": {
                    "xUz2JIY20egl4gxg": {
                        "damage": "8d4+12",
                        "damageType": "piercing"
                    }
                },
                "description": {
                    "value": ""
                },
                "rules": [],
                "slug": null,
                "source": {
                    "value": ""
                },
                "traits": {
                    "custom": "",
                    "rarity": {
                        "value": "common"
                    },
                    "value": []
                },
                "weaponType": {
                    "value": "melee"
                }
            },
            "effects": [],
            "flags": {},
            "img": "systems/pf2e/icons/default-icons/melee.svg",
            "name": "Gnawing Plants",
            "sort": 0,
            "type": "melee"
        }
    ],
    "name": "Agitated Carnivorous Plants",
    "token": {
        "disposition": 0,
        "height": 1,
        "img": "systems/pf2e/icons/default-icons/hazard.svg",
        "name": "Agitated Carnivorous Plants",
        "width": 1
    },
    "type": "hazard"
}
