{
    "_id": "bay4AfSu2iIozNNW",
    "data": {
        "ability": {
            "value": ""
        },
        "area": {
            "areaType": "",
            "value": null
        },
        "areasize": {
            "value": ""
        },
        "category": {
            "value": "spell"
        },
        "components": {
            "material": false,
            "somatic": true,
            "verbal": true
        },
        "cost": {
            "value": ""
        },
        "damage": {
            "value": {}
        },
        "description": {
            "value": "<p>You send the target back to its home plane. The target must attempt a Will save. You can spend an extra action while Casting this Spell and add a material component to give the creature a -2 circumstance penalty to its save. The component must be a specially gathered object that is anathema to the creature, and not from a material component pouch. This spell fails if you aren't on your home plane when you cast it.</p>\n<hr />\n<p><strong>Critical Success</strong> The target resists being banished and you are @Compendium[pf2e.conditionitems.Stunned]{Stunned 1}.</p>\n<p><strong>Success</strong> The target resists being banished.</p>\n<p><strong>Failure</strong> The target is banished.</p>\n<p><strong>Critical Failure</strong> The target is banished and can't return by any means to the plane it's banished from for 1 week.</p>\n<hr />\n<p><strong>Heightened (9th)</strong> You can target up to 10 creatures. The extra material component affects targets to which it is anathema.</p>"
        },
        "duration": {
            "value": ""
        },
        "hasCounteractCheck": {
            "value": false
        },
        "level": {
            "value": 5
        },
        "location": {
            "value": ""
        },
        "materials": {
            "value": ""
        },
        "prepared": {
            "value": ""
        },
        "primarycheck": {
            "value": ""
        },
        "range": {
            "value": "30 feet"
        },
        "rules": [],
        "save": {
            "basic": "",
            "value": "will"
        },
        "school": {
            "value": "abjuration"
        },
        "secondarycasters": {
            "value": ""
        },
        "secondarycheck": {
            "value": ""
        },
        "source": {
            "value": "Pathfinder Core Rulebook"
        },
        "spellType": {
            "value": "save"
        },
        "sustained": {
            "value": false
        },
        "target": {
            "value": "1 creature that isn't on its home plane"
        },
        "time": {
            "value": "2"
        },
        "traditions": {
            "value": [
                "arcane",
                "divine",
                "occult",
                "primal"
            ]
        },
        "traits": {
            "custom": "",
            "rarity": {
                "value": "common"
            },
            "value": [
                "incapacitation"
            ]
        }
    },
    "effects": [],
    "flags": {},
    "img": "systems/pf2e/icons/spells/banishment.webp",
    "name": "Banishment",
    "type": "spell"
}
