{
    "_id": "9iJaD4S7ptUeq5vO",
    "data": {
        "ability": {
            "value": ""
        },
        "area": {
            "areaType": "",
            "value": ""
        },
        "autoHeightenLevel": {
            "value": null
        },
        "category": {
            "value": "spell"
        },
        "components": {
            "focus": false,
            "material": false,
            "somatic": true,
            "verbal": true
        },
        "cost": {
            "value": ""
        },
        "damage": {
            "value": {
                "0": {
                    "applyMod": false,
                    "type": {
                        "categories": [],
                        "subtype": "",
                        "value": "healing"
                    },
                    "value": "1d8"
                }
            }
        },
        "description": {
            "value": "<p>You attune a creature to the Positive Energy Plane, connecting its life force without fully transporting it. The creature's appearance becomes more brightly colored. If the creature is living, it heals 1d8 Hit Points immediately and at the end of each of your turns. Effects that increase healing only increase the initial healing.</p>\n<p>If the creature is undead or has negative healing, it instead takes [[/r {1d8}[positive]]]{1d8 positive damage}, depending on the result of its Will save.</p>\n<hr />\n<p><strong>Critical Success</strong> The creature is unaffected.</p>\n<p><strong>Success</strong> The creature is damaged once and the spell ends.</p>\n<p><strong>Failure</strong> The creature is damaged immediately and at the end of each of your turns (so twice in the round you Cast the Spell).</p>\n<p><strong>Critical Failure</strong> As failure, and the damage is doubled.</p>\n<hr />\n<p><strong>Heightened (+3)</strong> The damage and healing each increase by [[/r 1d8]]{1d8}.</p>"
        },
        "duration": {
            "value": "sustained up to 1 minute"
        },
        "hasCounteractCheck": {
            "value": false
        },
        "level": {
            "value": 3
        },
        "location": {
            "value": ""
        },
        "materials": {
            "value": ""
        },
        "range": {
            "value": "touch"
        },
        "rules": [],
        "save": {
            "basic": "",
            "value": "will"
        },
        "scaling": {
            "damage": {
                "0": "1d8"
            },
            "interval": 3
        },
        "school": {
            "value": "necromancy"
        },
        "source": {
            "value": "Pathfinder Secrets of Magic"
        },
        "spellType": {
            "value": "heal"
        },
        "sustained": {
            "value": false
        },
        "target": {
            "value": "1 living or undead creature"
        },
        "time": {
            "value": "2"
        },
        "traditions": {
            "custom": "",
            "value": [
                "divine",
                "primal"
            ]
        },
        "traits": {
            "custom": "",
            "rarity": {
                "value": "common"
            },
            "value": [
                "healing",
                "positive"
            ]
        }
    },
    "effects": [],
    "flags": {},
    "img": "systems/pf2e/icons/spells/positive-attunement.webp",
    "name": "Positive Attunement",
    "type": "spell"
}
