{
    "_id": "dxOF7d5kAWusLKWF",
    "data": {
        "ability": {
            "value": ""
        },
        "area": {
            "value": "5-foot emanation"
        },
        "areasize": {
            "value": ""
        },
        "category": {
            "value": "spell"
        },
        "components": {
            "material": false,
            "somatic": true,
            "verbal": true
        },
        "cost": {
            "value": ""
        },
        "damage": {
            "value": {}
        },
        "description": {
            "value": "<p>You call forth a ghostly lantern that guides the living toward death and the undead toward true death. It sheds bright light in the spell's area, and dim light to twice that area. Though the lantern is insubstantial, you must keep a hand free to hold it or the spell ends (though using the hand for somatic spell components doesn't end the spell). Living creatures and undead in the area when you @Compendium[pf2e.actionspf2e.Cast a Spell]{Cast the Spell}, or that enter the area later, must attempt Fortitude saves. Living creatures that fail their Fortitude saves gain only half the normal benefit from healing effects while within the area. Undead targets that fail their Fortitude saves become @Compendium[pf2e.conditionitems.Enfeebled]{Enfeebled 1} while within the area. Once a creature attempts a save against <em>reaper's lantern</em>, it uses the same outcome if it leaves the area and enters it again.</p>\n<p>Once per turn, starting on the turn after you cast <em>reaper's lantern</em>, you can use a single action, which has the concentrate trait, to increase the emanation's radius by 5 feet. When you do so, you force creatures in the area that haven't yet attempted a save against <em>reaper's lantern</em> to attempt one.</p>"
        },
        "duration": {
            "value": "1 minute"
        },
        "hasCounteractCheck": {
            "value": false
        },
        "level": {
            "value": 2
        },
        "location": {
            "value": ""
        },
        "materials": {
            "value": ""
        },
        "prepared": {
            "value": false
        },
        "primarycheck": {
            "value": ""
        },
        "range": {
            "value": ""
        },
        "rules": [],
        "save": {
            "basic": "",
            "value": "fortitude"
        },
        "school": {
            "value": "necromancy"
        },
        "secondarycasters": {
            "value": ""
        },
        "secondarycheck": {
            "value": ""
        },
        "source": {
            "value": "Pathfinder Advanced Player's Guide"
        },
        "spellType": {
            "value": "utility"
        },
        "sustained": {
            "value": false
        },
        "target": {
            "value": ""
        },
        "time": {
            "value": "2"
        },
        "traditions": {
            "value": [
                "divine",
                "occult",
                "primal"
            ]
        },
        "traits": {
            "custom": "",
            "rarity": {
                "value": "common"
            },
            "value": [
                "death",
                "light"
            ]
        }
    },
    "effects": [],
    "flags": {},
    "img": "systems/pf2e/icons/spells/reapers-lantern.webp",
    "name": "Reaper's Lantern",
    "type": "spell"
}
