{
    "_id": "cf7Jkm39uEjUFtHt",
    "data": {
        "ability": {
            "value": ""
        },
        "area": {
            "areaType": "",
            "value": null
        },
        "areasize": {
            "value": ""
        },
        "category": {
            "value": "spell"
        },
        "components": {
            "material": false,
            "somatic": true,
            "verbal": true
        },
        "cost": {
            "value": ""
        },
        "damage": {
            "value": {}
        },
        "description": {
            "value": "<p>You slap or stomp on a nearby solid or liquid surface, sending a surge of water rushing away from you. The water forms a flat, 5-foot-thick, 10-foot-high wall of water between 5 and 15 feet wide (you decide). It moves 60 feet in a direction of your choice along the struck surface, extinguishing all non-magical fires, carrying along unattended objects of 1 Bulk or less, and pushing larger objects. The wave moves another 60 feet in the same direction at the start of your next turn, then vanishes. Large or smaller creatures in the area or that enter the area the wave moves through must attempt a Fortitude save.</p>\n<hr />\n<p><strong>Success</strong> The creature is unaffected.</p>\n<p><strong>Failure</strong> The creature is knocked @Compendium[pf2e.conditionitems.Prone]{Prone}. If the creature was Swimming, it gets a critical failure instead.</p>\n<p><strong>Critical Failure</strong> The creature is pushed 20 feet in the wave's direction, is knocked Prone, and takes 3d6 bludgeoning damage.</p>"
        },
        "duration": {
            "value": "until the start of your next turn"
        },
        "hasCounteractCheck": {
            "value": false
        },
        "level": {
            "value": 2
        },
        "location": {
            "value": ""
        },
        "materials": {
            "value": ""
        },
        "prepared": {
            "value": ""
        },
        "primarycheck": {
            "value": ""
        },
        "range": {
            "value": ""
        },
        "rules": [],
        "save": {
            "basic": "",
            "value": "fortitude"
        },
        "school": {
            "value": "evocation"
        },
        "secondarycasters": {
            "value": ""
        },
        "secondarycheck": {
            "value": ""
        },
        "source": {
            "value": "Pathfinder #151: The Show Must Go On"
        },
        "spellType": {
            "value": "save"
        },
        "sustained": {
            "value": false
        },
        "target": {
            "value": ""
        },
        "time": {
            "value": "2"
        },
        "traditions": {
            "custom": "",
            "value": [
                "arcane",
                "primal"
            ]
        },
        "traits": {
            "custom": "",
            "rarity": {
                "value": "uncommon"
            },
            "value": [
                "water"
            ]
        }
    },
    "effects": [],
    "flags": {},
    "img": "systems/pf2e/icons/spells/sea-surge.webp",
    "name": "Sea Surge",
    "type": "spell"
}
