{
    "_id": "TYvzNoL5ldmB5F76",
    "data": {
        "actionCategory": {
            "value": ""
        },
        "actionType": {
            "value": "passive"
        },
        "actions": {
            "value": null
        },
        "description": {
            "value": "<p>You have the features of a bee, butterfly, or other insect that loves sweets. You can ask questions of and receive answers from arthropods (insects, spiders, scorpions, crabs, and similar invertebrate animals), as well as use Diplomacy to Make an Impression on and Request things of them. Most bees, butterflies, moths, and beetles have an @Compendium[pf2e.conditionitems.Indifferent]{Indifferent} or @Compendium[pf2e.conditionitems.Friendly]{Friendly} starting attitude toward you and give you time to make your case, though other arthropods react to you like any other adventurer.</p>"
        },
        "featType": {
            "value": "heritage"
        },
        "level": {
            "value": 1
        },
        "location": "",
        "prerequisites": {
            "value": []
        },
        "rules": [],
        "source": {
            "value": ""
        },
        "traits": {
            "custom": "",
            "rarity": {
                "value": "common"
            },
            "value": [
                "sprite"
            ]
        }
    },
    "effects": [],
    "flags": {},
    "img": "systems/pf2e/icons/default-icons/feat.svg",
    "name": "Melixie",
    "type": "feat"
}
