{
    "_id": "uxtcKTkD62SmrUoh",
    "data": {
        "actionCategory": {
            "value": ""
        },
        "actionType": {
            "value": "passive"
        },
        "actions": {
            "value": null
        },
        "description": {
            "value": "<p>A victim of fleshwarping, you likely bear loose flesh, bony spurs, or features of inhuman creatures sprouting from your skin. You have nevertheless turned the psychic toll of your transformation into a strength. You gain resistance to mental damage equal to half your level (minimum 1).</p>"
        },
        "featType": {
            "value": "heritage"
        },
        "level": {
            "value": 1
        },
        "location": "",
        "prerequisites": {
            "value": []
        },
        "rules": [
            {
                "key": "Resistance",
                "type": "mental",
                "value": "max(1,floor(@details.level.value/2))"
            }
        ],
        "source": {
            "value": "Pathfinder Lost Omens: Ancestry Guide"
        },
        "traits": {
            "custom": "",
            "rarity": {
                "value": "common"
            },
            "value": [
                "fleshwarp"
            ]
        }
    },
    "effects": [],
    "flags": {},
    "img": "systems/pf2e/icons/default-icons/feat.svg",
    "name": "Shapewrought Fleshwarp",
    "type": "feat"
}
