{
    "_id": "Cq8sRhVVF0hagBu6",
    "data": {
        "abilities": {
            "cha": {
                "mod": 4
            },
            "con": {
                "mod": 2
            },
            "dex": {
                "mod": 3
            },
            "int": {
                "mod": 2
            },
            "str": {
                "mod": 5
            },
            "wis": {
                "mod": 4
            }
        },
        "attributes": {
            "ac": {
                "details": "",
                "value": 24
            },
            "allSaves": {
                "value": ""
            },
            "hp": {
                "details": "coffin restoration, fast healing 7, negative healing",
                "max": 65,
                "temp": 0,
                "value": 65
            },
            "initiative": {
                "ability": "perception"
            },
            "perception": {
                "value": 17
            },
            "shield": {
                "ac": 0,
                "brokenThreshold": 0,
                "hardness": 0,
                "max": 0,
                "value": 0
            },
            "speed": {
                "otherSpeeds": [
                    {
                        "label": "Climb",
                        "type": "climb",
                        "value": "25"
                    }
                ],
                "value": "25 feet"
            }
        },
        "details": {
            "alignment": {
                "value": "CE"
            },
            "blurb": "",
            "creatureType": "Undead",
            "level": {
                "value": 6
            },
            "privateNotes": "",
            "publicNotes": "<p>Vampire counts rule their demesnes through a mix of fear and cruelty.</p>\n<hr />\n<p>Vampires are undead creatures that feed on the blood of the living.</p>",
            "source": {
                "value": "Pathfinder Bestiary"
            }
        },
        "resources": {},
        "saves": {
            "fortitude": {
                "saveDetail": "",
                "value": 11
            },
            "reflex": {
                "saveDetail": "",
                "value": 14
            },
            "will": {
                "saveDetail": "",
                "value": 17
            }
        },
        "traits": {
            "ci": [],
            "di": {
                "custom": "",
                "value": [
                    "death-effects",
                    "disease",
                    "paralyzed",
                    "poison",
                    "sleep"
                ]
            },
            "dr": [
                {
                    "exceptions": "except magical silver",
                    "type": "physical",
                    "value": 7
                }
            ],
            "dv": [
                {
                    "type": "vampire-weaknesses",
                    "value": 0
                }
            ],
            "languages": {
                "custom": "One Regional Language",
                "selected": [],
                "value": [
                    "common",
                    "necril"
                ]
            },
            "rarity": {
                "value": "common"
            },
            "senses": {
                "value": "darkvision"
            },
            "size": {
                "value": "med"
            },
            "traits": {
                "custom": "",
                "value": [
                    "undead",
                    "vampire"
                ]
            }
        }
    },
    "effects": [],
    "flags": {},
    "img": "systems/pf2e/icons/default-icons/npc.svg",
    "items": [
        {
            "_id": "Td78ZItQvX6IaIYS",
            "data": {
                "MAP": {
                    "value": ""
                },
                "baseItem": "rapier",
                "bonus": {
                    "value": 0
                },
                "bonusDamage": {
                    "value": null
                },
                "brokenThreshold": {
                    "value": 0
                },
                "bulkCapacity": {
                    "value": ""
                },
                "category": "martial",
                "collapsed": {
                    "value": false
                },
                "containerId": {
                    "value": ""
                },
                "damage": {
                    "damageType": "piercing",
                    "dice": 1,
                    "die": "d6",
                    "value": ""
                },
                "description": {
                    "value": "<p>The rapier is a long and thin piercing blade with a basket hilt. It is prized among many as a dueling weapon.</p>"
                },
                "equipped": {
                    "value": false
                },
                "equippedBulk": {
                    "value": ""
                },
                "group": "sword",
                "hands": {
                    "value": ""
                },
                "hardness": {
                    "value": 0
                },
                "hp": {
                    "value": 0
                },
                "identification": {
                    "misidentified": {},
                    "status": "identified",
                    "unidentified": {
                        "data": {
                            "description": {
                                "value": ""
                            }
                        },
                        "img": "",
                        "name": ""
                    }
                },
                "invested": {
                    "value": false
                },
                "level": {
                    "value": 0
                },
                "maxHp": {
                    "value": 0
                },
                "negateBulk": {
                    "value": "0"
                },
                "potencyRune": {
                    "value": 1
                },
                "preciousMaterial": {
                    "value": null
                },
                "preciousMaterialGrade": {
                    "value": null
                },
                "price": {
                    "value": "2 gp"
                },
                "property1": {
                    "critDamage": "",
                    "critDamageType": "",
                    "critDice": null,
                    "critDie": "",
                    "criticalConditionType": "",
                    "criticalConditionValue": null,
                    "damageType": "",
                    "dice": null,
                    "die": "",
                    "strikeConditionType": "",
                    "strikeConditionValue": null,
                    "value": ""
                },
                "propertyRune1": {
                    "value": null
                },
                "propertyRune2": {
                    "value": null
                },
                "propertyRune3": {
                    "value": null
                },
                "propertyRune4": {
                    "value": null
                },
                "quantity": {
                    "value": 1
                },
                "range": null,
                "reload": {
                    "value": ""
                },
                "rules": [],
                "size": {
                    "value": "med"
                },
                "slug": "rapier",
                "source": {
                    "value": "Pathfinder Core Rulebook"
                },
                "specific": {
                    "value": false
                },
                "splashDamage": {
                    "value": 0
                },
                "stackGroup": {
                    "value": ""
                },
                "strikingRune": {
                    "value": ""
                },
                "traits": {
                    "custom": "",
                    "rarity": {
                        "value": "common"
                    },
                    "value": [
                        "deadly-d8",
                        "disarm",
                        "finesse"
                    ]
                },
                "usage": {
                    "value": "held-in-one-hand"
                },
                "weight": {
                    "value": "1"
                }
            },
            "effects": [],
            "flags": {
                "core": {
                    "sourceId": "Compendium.pf2e.equipment-srd.tH5GirEy7YB3ZgCk"
                }
            },
            "img": "systems/pf2e/icons/equipment/weapons/rapier.webp",
            "name": "Rapier",
            "sort": 100000,
            "type": "weapon"
        },
        {
            "_id": "jEG8GHno84Sbk6mo",
            "data": {
                "armor": {
                    "value": 1
                },
                "armorType": {
                    "value": "light"
                },
                "baseItem": "leather-armor",
                "brokenThreshold": {
                    "value": null
                },
                "bulkCapacity": {
                    "value": ""
                },
                "check": {
                    "value": -1
                },
                "collapsed": {
                    "value": false
                },
                "containerId": {
                    "value": ""
                },
                "description": {
                    "value": "<p>A mix of flexible and molded boiled leather, a suit of this type of armor provides some protection with maximum flexibility.</p>"
                },
                "dex": {
                    "value": 4
                },
                "equipped": {
                    "value": false
                },
                "equippedBulk": {
                    "value": "1"
                },
                "group": {
                    "value": "leather"
                },
                "hardness": {
                    "value": null
                },
                "hp": {
                    "value": null
                },
                "identification": {
                    "misidentified": {},
                    "status": "identified",
                    "unidentified": {
                        "data": {
                            "description": {
                                "value": ""
                            }
                        },
                        "img": "",
                        "name": ""
                    }
                },
                "invested": {
                    "value": false
                },
                "level": {
                    "value": 0
                },
                "maxHp": {
                    "value": null
                },
                "negateBulk": {
                    "value": "0"
                },
                "potency": {},
                "potencyRune": {
                    "value": 0
                },
                "preciousMaterial": {
                    "value": null
                },
                "preciousMaterialGrade": {
                    "value": null
                },
                "price": {
                    "value": "2 gp"
                },
                "propertyRune1": {
                    "value": ""
                },
                "propertyRune2": {
                    "value": ""
                },
                "propertyRune3": {
                    "value": ""
                },
                "propertyRune4": {
                    "value": ""
                },
                "quantity": {
                    "value": 1
                },
                "resiliencyRune": {
                    "value": ""
                },
                "rules": [],
                "size": {
                    "value": "med"
                },
                "slug": "leather-armor",
                "source": {
                    "value": "Pathfinder Core Rulebook"
                },
                "speed": {
                    "value": 0
                },
                "stackGroup": {
                    "value": ""
                },
                "strength": {
                    "value": 10
                },
                "traits": {
                    "custom": "",
                    "rarity": {
                        "value": "common"
                    },
                    "value": []
                },
                "usage": {
                    "value": "wornarmor"
                },
                "weight": {
                    "value": "2"
                }
            },
            "effects": [],
            "flags": {
                "core": {
                    "sourceId": "Compendium.pf2e.equipment-srd.4tIVTg9wj56RrveA"
                }
            },
            "img": "systems/pf2e/icons/equipment/armor/leather-armor.webp",
            "name": "Leather Armor",
            "sort": 200000,
            "type": "armor"
        },
        {
            "_id": "bgkXxmVMntPQOmND",
            "data": {
                "attack": {
                    "value": ""
                },
                "attackEffects": {
                    "value": []
                },
                "bonus": {
                    "value": 17
                },
                "damageRolls": {
                    "6r2xqkx5nywfedxwtyts": {
                        "damage": "1d6+11",
                        "damageType": "piercing"
                    }
                },
                "description": {
                    "value": ""
                },
                "rules": [],
                "slug": null,
                "source": {
                    "value": ""
                },
                "traits": {
                    "custom": "",
                    "rarity": {
                        "value": "common"
                    },
                    "value": [
                        "deadly-d8",
                        "disarm"
                    ]
                },
                "weaponType": {
                    "value": "melee"
                }
            },
            "effects": [],
            "flags": {},
            "img": "systems/pf2e/icons/default-icons/melee.svg",
            "name": "Rapier",
            "sort": 300000,
            "type": "melee"
        },
        {
            "_id": "ziSz2omKZDCD4A0e",
            "data": {
                "attack": {
                    "value": ""
                },
                "attackEffects": {
                    "custom": "",
                    "value": [
                        "grab"
                    ]
                },
                "bonus": {
                    "value": 17
                },
                "damageRolls": {
                    "biya5r6cbmpnb9ww4s11": {
                        "damage": "1d8+8",
                        "damageType": "slashing"
                    }
                },
                "description": {
                    "value": ""
                },
                "rules": [],
                "slug": null,
                "source": {
                    "value": ""
                },
                "traits": {
                    "custom": "",
                    "rarity": {
                        "value": "common"
                    },
                    "value": [
                        "agile"
                    ]
                },
                "weaponType": {
                    "value": "melee"
                }
            },
            "effects": [],
            "flags": {},
            "img": "systems/pf2e/icons/default-icons/melee.svg",
            "name": "Claw",
            "sort": 400000,
            "type": "melee"
        },
        {
            "_id": "tWbHQ0vvt0pazg8b",
            "data": {
                "actionCategory": {
                    "value": "interaction"
                },
                "actionType": {
                    "value": "passive"
                },
                "actions": {
                    "value": null
                },
                "description": {
                    "value": "<p>The vampire's presence brings forth creatures of the night to do the master's bidding. These typically include @Compendium[pf2e.pathfinder-bestiary.Rat Swarm]{Rat Swarms}, @Compendium[pf2e.pathfinder-bestiary.Vampire Bat Swarm]{Bat Swarms}, and @Compendium[pf2e.pathfinder-bestiary.Wolf]{Wolves}, but can include other creatures.</p>\n<p>The vampire can give telepathic orders to these creatures as long as they are within 100 feet, but they can't communicate back.</p>"
                },
                "requirements": {
                    "value": ""
                },
                "rules": [],
                "slug": "vampire-true-children-of-the-night",
                "source": {
                    "value": "Pathfinder Bestiary"
                },
                "traits": {
                    "custom": "",
                    "rarity": {
                        "value": "common"
                    },
                    "value": [
                        "divine",
                        "enchantment",
                        "mental"
                    ]
                },
                "trigger": {
                    "value": ""
                },
                "weapon": {
                    "value": ""
                }
            },
            "effects": [],
            "flags": {
                "core": {
                    "sourceId": "Compendium.pf2e.bestiary-family-ability-glossary.noOXyIXmwYN2rRd1"
                }
            },
            "img": "systems/pf2e/icons/actions/Passive.webp",
            "name": "Children of the Night",
            "sort": 500000,
            "type": "action"
        },
        {
            "_id": "UlKjjV6z1vsPPMQD",
            "data": {
                "actionCategory": {
                    "value": "interaction"
                },
                "actionType": {
                    "value": "passive"
                },
                "actions": {
                    "value": null
                },
                "description": {
                    "value": "<p>@Localize[PF2E.NPC.Abilities.Glossary.Darkvision]</p>"
                },
                "requirements": {
                    "value": ""
                },
                "rules": [],
                "slug": "darkvision",
                "source": {
                    "value": ""
                },
                "traits": {
                    "custom": "",
                    "rarity": {
                        "value": "common"
                    },
                    "value": []
                },
                "trigger": {
                    "value": ""
                },
                "weapon": {
                    "value": ""
                }
            },
            "effects": [],
            "flags": {
                "core": {
                    "sourceId": "Compendium.pf2e.bestiary-ability-glossary-srd.qCCLZhnp2HhP3Ex6"
                }
            },
            "img": "systems/pf2e/icons/actions/Passive.webp",
            "name": "Darkvision",
            "sort": 600000,
            "type": "action"
        },
        {
            "_id": "h3y1i4tyd5aM7X2A",
            "data": {
                "actionCategory": {
                    "value": "defensive"
                },
                "actionType": {
                    "value": "passive"
                },
                "actions": {
                    "value": null
                },
                "description": {
                    "value": "<p>@Localize[PF2E.NPC.Abilities.Glossary.FastHealing]</p>"
                },
                "requirements": {
                    "value": ""
                },
                "rules": [],
                "slug": "fast-healing",
                "source": {
                    "value": ""
                },
                "traits": {
                    "custom": "",
                    "rarity": {
                        "value": "common"
                    },
                    "value": []
                },
                "trigger": {
                    "value": ""
                },
                "weapon": {
                    "value": ""
                }
            },
            "effects": [],
            "flags": {
                "core": {
                    "sourceId": "Compendium.pf2e.bestiary-ability-glossary-srd.fJSNOw4zHGbIm4bZ"
                }
            },
            "img": "systems/pf2e/icons/actions/Passive.webp",
            "name": "Fast Healing 7",
            "sort": 700000,
            "type": "action"
        },
        {
            "_id": "qPkPFAZpcYQTtHr0",
            "data": {
                "actionCategory": {
                    "value": "defensive"
                },
                "actionType": {
                    "value": "passive"
                },
                "actions": {
                    "value": null
                },
                "description": {
                    "value": "<p>@Localize[PF2E.NPC.Abilities.Glossary.NegativeHealing]</p>"
                },
                "requirements": {
                    "value": ""
                },
                "rules": [
                    {
                        "key": "ActiveEffectLike",
                        "mode": "override",
                        "path": "data.attributes.hp.negativeHealing",
                        "value": true
                    }
                ],
                "slug": "negative-healing",
                "source": {
                    "value": ""
                },
                "traits": {
                    "custom": "",
                    "rarity": {
                        "value": "common"
                    },
                    "value": []
                },
                "trigger": {
                    "value": ""
                },
                "weapon": {
                    "value": ""
                }
            },
            "effects": [],
            "flags": {
                "core": {
                    "sourceId": "Compendium.pf2e.bestiary-ability-glossary-srd.TTCw5NusiSSkJU1x"
                }
            },
            "img": "systems/pf2e/icons/actions/Passive.webp",
            "name": "Negative Healing",
            "sort": 800000,
            "type": "action"
        },
        {
            "_id": "3krbFbrGHnrSaj3m",
            "data": {
                "actionCategory": {
                    "value": "defensive"
                },
                "actionType": {
                    "value": "passive"
                },
                "actions": {
                    "value": null
                },
                "description": {
                    "value": "<p>All vampires possess the following weaknesses.</p>\n<ul>\n<li><strong>Compulsions</strong> Vampires are creatures of strange and unknowable compulsions. A typical vampire can't voluntarily cross running water unless it is transported while it hides within its coffin, nor can it enter a private dwelling unless invited in by someone with the authority to do so. At your discretion, vampires might have different compulsions-a pirate vampire might not be able to set foot on solid ground without being invited, for example. The vampire can still be forced to do these things and might be able to overcome its compulsion just as it does its revulsion.</li>\n<li><strong>Revulsion</strong> A vampire can't voluntarily come within 10 feet of brandished garlic or a brandished religious symbol of a non-evil deity. To brandish garlic or a religious symbol, a creature must Interact to do so for 1 round (similar to Raising a Shield). If the vampire involuntarily comes within 10 feet of an object of its revulsion, it gains the @Compendium[pf2e.conditionitems.Fleeing]{Fleeing} condition, running from the object of its revulsion until it ends an action beyond 10 feet. After 1 round of being exposed to the subject of its revulsion, a vampire can attempt a <span data-pf2-check=\"will\" data-pf2-dc=\"25\" data-pf2-label=\"Overcome Revulsion DC\" data-pf2-show-dc=\"gm\">Will</span> save as a single action, which has the concentrate trait. On a success, it overcomes its revulsions for [[/br 1d6 #rounds]]{1d6 rounds} (or 1 hour on a critical success).</li>\n<li><strong>Stake</strong> A wooden stake driven through a vampire's heart drops the vampire to 0 HP and prevents it from healing above 0 HP, even in its coffin. Staking a vampire requires three actions and works only if the vampire is unconscious. If the stake is removed, the vampire can heal above 0 HP again, and if it's in its coffin the 1-hour rest period begins once the stake is removed. If the vampire's head is severed and anointed with <em>@Compendium[pf2e.equipment-srd.Holy Water]{Holy Water}</em> while the stake is in place, the vampire is destroyed.</li>\n<li><strong>Sunlight</strong> If exposed to direct sunlight, a vampire immediately becomes @Compendium[pf2e.conditionitems.Slowed]{Slowed 1}. The slowed value increases by 1 each time the vampire ends its turn in sunlight. If the vampire loses all its actions in this way, it is destroyed. Due to their supernatural aversion to light, vampires don't cast shadows or show a reflection in mirrors.</li>\n</ul>"
                },
                "requirements": {
                    "value": "Pathfinder Bestiary"
                },
                "rules": [],
                "slug": "vampire-basic-vampire-weaknesses",
                "source": {
                    "value": ""
                },
                "traits": {
                    "custom": "",
                    "rarity": {
                        "value": "common"
                    },
                    "value": []
                },
                "trigger": {
                    "value": ""
                },
                "weapon": {
                    "value": ""
                }
            },
            "effects": [],
            "flags": {
                "core": {
                    "sourceId": "Compendium.pf2e.bestiary-family-ability-glossary.5DuBTf37u88IrphJ"
                }
            },
            "img": "systems/pf2e/icons/actions/Passive.webp",
            "name": "Vampire Weaknesses",
            "sort": 900000,
            "type": "action"
        },
        {
            "_id": "PTWWWtp3pbGRXFOp",
            "data": {
                "actionCategory": {
                    "value": "defensive"
                },
                "actionType": {
                    "value": "passive"
                },
                "actions": {
                    "value": null
                },
                "description": {
                    "value": "<p>Unlike other undead, a vampire isn't destroyed at 0 HP. Instead, it falls @Compendium[pf2e.conditionitems.Unconscious]{Unconscious}. If its body rests in its coffin for 1 hour, the vampire gains 1 HP, after which its @Compendium[pf2e.bestiary-ability-glossary-srd.Fast Healing]{Fast Healing} begins to function normally.</p>"
                },
                "requirements": {
                    "value": ""
                },
                "rules": [],
                "slug": "vampire-basic-coffin-restoration",
                "source": {
                    "value": "Pathfinder Bestiary"
                },
                "traits": {
                    "custom": "",
                    "rarity": {
                        "value": "common"
                    },
                    "value": [
                        "divine",
                        "necromancy",
                        "negative"
                    ]
                },
                "trigger": {
                    "value": ""
                },
                "weapon": {
                    "value": ""
                }
            },
            "effects": [],
            "flags": {
                "core": {
                    "sourceId": "Compendium.pf2e.bestiary-family-ability-glossary.FXHjmH1oce7Z3tZb"
                }
            },
            "img": "systems/pf2e/icons/actions/Passive.webp",
            "name": "Coffin Restoration",
            "sort": 1000000,
            "type": "action"
        },
        {
            "_id": "7jk0Te7a47HHBCBe",
            "data": {
                "actionCategory": {
                    "value": "defensive"
                },
                "actionType": {
                    "value": "free"
                },
                "actions": {
                    "value": null
                },
                "description": {
                    "value": "<p data-visibility=\"gm\"><strong>Trigger</strong> The vampire is reduced to 0 HP.</p>\n<p><strong>Effect</strong> The vampire uses Turn to Mist. It can take move actions to move toward its coffin even though it's at 0 HP. While at 0 HP in this form, the vampire is unaffected by further damage.</p>\n<p>It automatically returns to its corporeal form, unconscious, if it reaches its coffin or after 2 hours, whichever comes first.</p>"
                },
                "requirements": {
                    "value": ""
                },
                "rules": [],
                "slug": "vampire-true-mist-escape",
                "source": {
                    "value": "Pathfinder Bestiary"
                },
                "traits": {
                    "custom": "",
                    "rarity": {
                        "value": "common"
                    },
                    "value": []
                },
                "trigger": {
                    "value": ""
                },
                "weapon": {
                    "value": ""
                }
            },
            "effects": [],
            "flags": {
                "core": {
                    "sourceId": "Compendium.pf2e.bestiary-family-ability-glossary.sAyR4uJbsWukZFZf"
                }
            },
            "img": "systems/pf2e/icons/actions/FreeAction.webp",
            "name": "Mist Escape",
            "sort": 1100000,
            "type": "action"
        },
        {
            "_id": "qvtoCJbta9RZhQyP",
            "data": {
                "actionCategory": {
                    "value": "offensive"
                },
                "actionType": {
                    "value": "action"
                },
                "actions": {
                    "value": 1
                },
                "description": {
                    "value": "<p>@Localize[PF2E.NPC.Abilities.Glossary.Grab]</p>"
                },
                "requirements": {
                    "value": ""
                },
                "rules": [],
                "slug": "grab",
                "source": {
                    "value": ""
                },
                "traits": {
                    "custom": "",
                    "rarity": {
                        "value": "common"
                    },
                    "value": []
                },
                "trigger": {
                    "value": ""
                },
                "weapon": {
                    "value": ""
                }
            },
            "effects": [],
            "flags": {
                "core": {
                    "sourceId": "Compendium.pf2e.bestiary-ability-glossary-srd.Tkd8sH4pwFIPzqTr"
                }
            },
            "img": "systems/pf2e/icons/actions/OneAction.webp",
            "name": "Grab",
            "sort": 1200000,
            "type": "action"
        },
        {
            "_id": "PV3IDenFiI72CW5L",
            "data": {
                "actionCategory": {
                    "value": "offensive"
                },
                "actionType": {
                    "value": "passive"
                },
                "actions": {
                    "value": null
                },
                "description": {
                    "value": "<p>If a creature dies after being reduced to 0 HP by Drink Blood, the vampire can turn this victim into a vampire by donating some of its own blood to the victim and burying the victim in earth for 3 nights.</p>\n<p>If the new vampire is lower level than its creator, it is under the creator's control. If a vampire controls too many spawn at once (as determined by the GM), strong-willed spawn can free themselves by succeeding at a <span data-pf2-check=\"will\" data-pf2-dc=\"\" data-pf2-label=\"Escape Thralldom DC\" data-pf2-show-dc=\"gm\">Will</span> saving throw against the vampire's Will DC.</p>"
                },
                "requirements": {
                    "value": ""
                },
                "rules": [],
                "slug": "vampire-true-create-spawn",
                "source": {
                    "value": "Pathfinder Bestiary"
                },
                "traits": {
                    "custom": "",
                    "rarity": {
                        "value": "common"
                    },
                    "value": [
                        "divine",
                        "downtime",
                        "necromancy"
                    ]
                },
                "trigger": {
                    "value": ""
                },
                "weapon": {
                    "value": ""
                }
            },
            "effects": [],
            "flags": {
                "core": {
                    "sourceId": "Compendium.pf2e.bestiary-family-ability-glossary.wqptDG0IW6ExnISC"
                }
            },
            "img": "systems/pf2e/icons/actions/Passive.webp",
            "name": "Create Spawn",
            "sort": 1300000,
            "type": "action"
        },
        {
            "_id": "LfUr0UR1ij7ksywN",
            "data": {
                "actionCategory": {
                    "value": "offensive"
                },
                "actionType": {
                    "value": "action"
                },
                "actions": {
                    "value": 1
                },
                "description": {
                    "value": "<p><strong>Requirement</strong> A @Compendium[pf2e.conditionitems.Grabbed]{Grabbed}, @Compendium[pf2e.conditionitems.Paralyzed]{Paralyzed}, @Compendium[pf2e.conditionitems.Restrained]{Restrained}, @Compendium[pf2e.conditionitems.Unconscious]{Unconscious}, or willing creature is within the vampire's reach.</p>\n<p><strong>Effect</strong> The vampire sinks its fangs into that creature to drink its blood. This requires an Athletics check against the victim's Fortitude DC if the victim is grabbed and is automatic for any of the other conditions.</p>\n<p>The victim is @Compendium[pf2e.conditionitems.Drained]{Drained 2} and the vampire regains 10 HP, gaining any excess HP as temporary Hit Points. Drinking Blood from a creature that's already drained doesn't restore any HP to the vampire but increases the victim's drain value by 1. A vampire can also consume blood that's been emptied into a vessel for sustenance, but it gains no HP from doing so.</p>\n<p>A victim's drained condition decreases by 1 per week. A blood transfusion, which requires a <span data-pf2-check=\"medicine\" data-pf2-dc=\"20\" data-pf2-label=\"Blood Transfusion DC\" data-pf2-show-dc=\"gm\">Medicine</span> check and sufficient blood or a blood donor, reduces the drain by 1 after 10 minutes.</p>"
                },
                "requirements": {
                    "value": ""
                },
                "rules": [],
                "slug": "vampire-true-drink-blood",
                "source": {
                    "value": "Pathfinder Bestiary"
                },
                "traits": {
                    "custom": "",
                    "rarity": {
                        "value": "common"
                    },
                    "value": [
                        "divine",
                        "necromancy"
                    ]
                },
                "trigger": {
                    "value": ""
                },
                "weapon": {
                    "value": ""
                }
            },
            "effects": [],
            "flags": {
                "core": {
                    "sourceId": "Compendium.pf2e.bestiary-family-ability-glossary.XHut4MN0JBgm7WaN"
                }
            },
            "img": "systems/pf2e/icons/actions/OneAction.webp",
            "name": "Drink Blood",
            "sort": 1400000,
            "type": "action"
        },
        {
            "_id": "L6NxueEdWhKJPTzs",
            "data": {
                "actionCategory": {
                    "value": "offensive"
                },
                "actionType": {
                    "value": "action"
                },
                "actions": {
                    "value": 1
                },
                "description": {
                    "value": "<p>The vampire turns into a cloud of vapor, as the <em>@Compendium[pf2e.spells-srd.Gaseous Form]{Gaseous Form}</em> spell, or back to its normal form. The vampire loses @Compendium[pf2e.bestiary-ability-glossary-srd.Fast Healing]{Fast Healing} while in gaseous form.</p>\n<p>The vampire can remain in this form indefinitely.</p>"
                },
                "requirements": {
                    "value": ""
                },
                "rules": [],
                "slug": "vampire-true-turn-to-mist",
                "source": {
                    "value": "Pathfinder Bestiary"
                },
                "traits": {
                    "custom": "",
                    "rarity": {
                        "value": "common"
                    },
                    "value": [
                        "concentrate",
                        "divine",
                        "transmutation"
                    ]
                },
                "trigger": {
                    "value": ""
                },
                "weapon": {
                    "value": ""
                }
            },
            "effects": [],
            "flags": {
                "core": {
                    "sourceId": "Compendium.pf2e.bestiary-family-ability-glossary.Nnl5wg6smOzieTop"
                }
            },
            "img": "systems/pf2e/icons/actions/OneAction.webp",
            "name": "Turn to Mist",
            "sort": 1500000,
            "type": "action"
        },
        {
            "_id": "fotztrNKLw3i80lr",
            "data": {
                "actionCategory": {
                    "value": "offensive"
                },
                "actionType": {
                    "value": "action"
                },
                "actions": {
                    "value": 2
                },
                "description": {
                    "value": "<p><span data-pf2-check=\"will\" data-pf2-dc=\"22\" data-pf2-traits=\"divine,enchantment,incapacitation,mental\" data-pf2-label=\"Dominate DC\" data-pf2-show-dc=\"gm\">Will</span></p>\n<hr />\n<p>The vampire can cast <em>@Compendium[pf2e.spells-srd.Dominate]{Dominate}</em> at will as a divine innate spell. Casting it requires staring into the target's eyes, giving the spell the visual trait. The save DC uses the DC of the vampire's level, and a creature that succeeds is temporarily immune to that vampire's Dominate for 24 hours.</p>\n<p>Fully destroying the vampire ends the domination, but merely reducing the vampire to 0 HP is insufficient to break the spell.</p>"
                },
                "requirements": {
                    "value": ""
                },
                "rules": [],
                "slug": "vampire-true-dominate",
                "source": {
                    "value": "Pathfinder Bestiary"
                },
                "traits": {
                    "custom": "",
                    "rarity": {
                        "value": "common"
                    },
                    "value": [
                        "divine",
                        "enchantment",
                        "incapacitation",
                        "mental",
                        "visual"
                    ]
                },
                "trigger": {
                    "value": ""
                },
                "weapon": {
                    "value": ""
                }
            },
            "effects": [],
            "flags": {
                "core": {
                    "sourceId": "Compendium.pf2e.bestiary-family-ability-glossary.AjTkksppymqzCivT"
                }
            },
            "img": "systems/pf2e/icons/actions/TwoActions.webp",
            "name": "Dominate",
            "sort": 1600000,
            "type": "action"
        },
        {
            "_id": "dIn4hnKpk8qq0mFs",
            "data": {
                "actionCategory": {
                    "value": "offensive"
                },
                "actionType": {
                    "value": "action"
                },
                "actions": {
                    "value": 1
                },
                "description": {
                    "value": "<p>The vampire transforms into a bat.</p>\n<p>Use the options in the <em>@Compendium[pf2e.spells-srd.Aerial Form]{Aerial Form}</em> and <em>@Compendium[pf2e.spells-srd.Animal Form]{Animal Form}</em> spells as guidelines.</p>\n<ul>\n<li><strong>Bat</strong> The vampire changes into a @Compendium[pf2e.pathfinder-bestiary.Giant Bat]{Giant Bat}. It gains echolocation 40 feet, a land Speed of 20 feet and a fly Speed of 30 feet, and a fangs Strike.</li>\n</ul>\n<hr />\n<p>@Localize[PF2E.NPC.Abilities.Glossary.ChangeShape]</p>"
                },
                "requirements": {
                    "value": "Pathfinder Bestiary"
                },
                "rules": [],
                "slug": "vampire-true-change-shape",
                "source": {
                    "value": ""
                },
                "traits": {
                    "custom": "",
                    "rarity": {
                        "value": "common"
                    },
                    "value": [
                        "concentrate",
                        "divine",
                        "polymorph",
                        "transmutation"
                    ]
                },
                "trigger": {
                    "value": ""
                },
                "weapon": {
                    "value": ""
                }
            },
            "effects": [],
            "flags": {
                "core": {
                    "sourceId": "Compendium.pf2e.bestiary-family-ability-glossary.ZMTnwyXjyfy7Ryi6"
                }
            },
            "img": "systems/pf2e/icons/actions/OneAction.webp",
            "name": "Change Shape",
            "sort": 1700000,
            "type": "action"
        },
        {
            "_id": "vZ1OrzwjKPUoKEMn",
            "data": {
                "description": {
                    "value": ""
                },
                "item": {
                    "value": 0
                },
                "mod": {
                    "value": 13
                },
                "proficient": {
                    "value": 0
                },
                "rules": [],
                "slug": null,
                "source": {
                    "value": ""
                },
                "traits": {
                    "custom": "",
                    "rarity": {
                        "value": "common"
                    },
                    "value": []
                }
            },
            "effects": [],
            "flags": {},
            "img": "systems/pf2e/icons/default-icons/lore.svg",
            "name": "Acrobatics",
            "sort": 1800000,
            "type": "lore"
        },
        {
            "_id": "89qMVolXaNuTdLvF",
            "data": {
                "description": {
                    "value": ""
                },
                "item": {
                    "value": 0
                },
                "mod": {
                    "value": 15
                },
                "proficient": {
                    "value": 0
                },
                "rules": [],
                "slug": null,
                "source": {
                    "value": ""
                },
                "traits": {
                    "custom": "",
                    "rarity": {
                        "value": "common"
                    },
                    "value": []
                }
            },
            "effects": [],
            "flags": {},
            "img": "systems/pf2e/icons/default-icons/lore.svg",
            "name": "Athletics",
            "sort": 1900000,
            "type": "lore"
        },
        {
            "_id": "CtCd0sUGvUKkHkgn",
            "data": {
                "description": {
                    "value": ""
                },
                "item": {
                    "value": 0
                },
                "mod": {
                    "value": 14
                },
                "proficient": {
                    "value": 0
                },
                "rules": [],
                "slug": null,
                "source": {
                    "value": ""
                },
                "traits": {
                    "custom": "",
                    "rarity": {
                        "value": "common"
                    },
                    "value": []
                }
            },
            "effects": [],
            "flags": {},
            "img": "systems/pf2e/icons/default-icons/lore.svg",
            "name": "Deception",
            "sort": 2000000,
            "type": "lore"
        },
        {
            "_id": "fLo8uFsftExYIRgA",
            "data": {
                "description": {
                    "value": ""
                },
                "item": {
                    "value": 0
                },
                "mod": {
                    "value": 14
                },
                "proficient": {
                    "value": 0
                },
                "rules": [],
                "slug": null,
                "source": {
                    "value": ""
                },
                "traits": {
                    "custom": "",
                    "rarity": {
                        "value": "common"
                    },
                    "value": []
                }
            },
            "effects": [],
            "flags": {},
            "img": "systems/pf2e/icons/default-icons/lore.svg",
            "name": "Diplomacy",
            "sort": 2100000,
            "type": "lore"
        },
        {
            "_id": "vvKUuEO1v0PbUCgS",
            "data": {
                "description": {
                    "value": ""
                },
                "item": {
                    "value": 0
                },
                "mod": {
                    "value": 16
                },
                "proficient": {
                    "value": 0
                },
                "rules": [],
                "slug": null,
                "source": {
                    "value": ""
                },
                "traits": {
                    "custom": "",
                    "rarity": {
                        "value": "common"
                    },
                    "value": []
                }
            },
            "effects": [],
            "flags": {},
            "img": "systems/pf2e/icons/default-icons/lore.svg",
            "name": "Intimidation",
            "sort": 2200000,
            "type": "lore"
        },
        {
            "_id": "9PrR48XhuDQhEg8V",
            "data": {
                "description": {
                    "value": ""
                },
                "item": {
                    "value": 0
                },
                "mod": {
                    "value": 14
                },
                "proficient": {
                    "value": 0
                },
                "rules": [],
                "slug": null,
                "source": {
                    "value": ""
                },
                "traits": {
                    "custom": "",
                    "rarity": {
                        "value": "common"
                    },
                    "value": []
                }
            },
            "effects": [],
            "flags": {},
            "img": "systems/pf2e/icons/default-icons/lore.svg",
            "name": "Society",
            "sort": 2300000,
            "type": "lore"
        },
        {
            "_id": "jGA2mmy3aNl6V6ZK",
            "data": {
                "description": {
                    "value": ""
                },
                "item": {
                    "value": 0
                },
                "mod": {
                    "value": 13
                },
                "proficient": {
                    "value": 0
                },
                "rules": [],
                "slug": null,
                "source": {
                    "value": ""
                },
                "traits": {
                    "custom": "",
                    "rarity": {
                        "value": "common"
                    },
                    "value": []
                }
            },
            "effects": [],
            "flags": {},
            "img": "systems/pf2e/icons/default-icons/lore.svg",
            "name": "Stealth",
            "sort": 2400000,
            "type": "lore"
        }
    ],
    "name": "Vampire Count",
    "token": {
        "disposition": -1,
        "height": 1,
        "img": "systems/pf2e/icons/default-icons/npc.svg",
        "name": "Vampire Count",
        "width": 1
    },
    "type": "npc"
}
